<?xml version="1.0" standalone="no"?>
<!DOCTYPE svg PUBLIC "-//W3C//DTD SVG 20010904//EN"
 "http://www.w3.org/TR/2001/REC-SVG-20010904/DTD/svg10.dtd">
<svg version="1.0" xmlns="http://www.w3.org/2000/svg"
 width="180.000000pt" height="180.000000pt" viewBox="0 0 180.000000 180.000000"
 preserveAspectRatio="xMidYMid meet">
<metadata>
Created by potrace 1.11, written by Peter Selinger 2001-2013
</metadata>
<g transform="translate(0.000000,180.000000) scale(0.100000,-0.100000)"
fill="#000000" stroke="none">
<path d="M0 900 l0 -900 900 0 900 0 0 900 0 900 -900 0 -900 0 0 -900z m1188
-40 l251 -485 -236 -3 c-130 -1 -237 -1 -239 0 -1 2 0 47 3 100 l6 96 24 -9
c38 -14 41 -12 45 44 3 45 0 59 -28 102 -27 43 -33 62 -37 135 -6 79 -46 232
-67 254 -21 21 -74 -145 -85 -270 -6 -62 -13 -89 -36 -125 -19 -31 -29 -59
-29 -85 0 -52 11 -67 43 -59 28 7 28 8 41 -132 l5 -53 -239 0 c-132 0 -240 3
-240 6 0 5 279 549 420 819 32 61 70 135 85 165 l27 54 18 -34 c10 -19 131
-253 268 -520z"/>
</g>
</svg>
